The following user tried to access the QED Permission Management Tool Service Lawrence Phakathi 
The following user tried to access the QED Permission Management Tool Service Lawrence Phakathi 
The following user tried to access the QED Permission Management Tool Service Lawrence Phakathi 
The following user tried to access the QED Permission Management Tool Service Lawrence Phakathi 
The following user tried to access the QED Permission Management Tool Service Lawrence Phakathi 
The following user tried to access the QED Permission Management Tool Service Lawrence Phakathi 
The following user tried to access the QED Permission Management Tool Service Lawrence Phakathi 
The following user tried to access the QED Permission Management Tool Service Lawrence Phakathi 
The following user tried to access the QED Permission Management Tool Service Lawrence Phakathi 
The following user tried to access the QED Permission Management Tool Service Lawrence Phakathi 
The following user tried to access the QED Permission Management Tool Service Lawrence Phakathi 
The following user tried to access the QED Permission Management Tool Service Lawrence Phakathi 
The following user tried to access the QED Permission Management Tool Service Lawrence Phakathi 
The following user tried to access the QED Permission Management Tool Service Lawrence Phakathi 
The following user tried to access the QED Permission Management Tool Service Lawrence Phakathi 
